cpu-pipelined/testbench.vcd
$date
	Mon Nov 23 18:45:48 2020
$end
$version
	Icarus Verilog
$end
$timescale
	1ps
$end
$scope module testbench $end
$var reg 1 ! clk $end
$var reg 1 " rst $end
$scope module dut $end
$var wire 1 ! clk $end
$var wire 1 " rst $end
$var wire 64 # writereg [63:0] $end
$var wire 1 $ stall $end
$var wire 6 % shamt [5:0] $end
$var wire 5 & rn [4:0] $end
$var wire 5 ' rm [4:0] $end
$var wire 64 ( readreg2 [63:0] $end
$var wire 64 ) readreg1 [63:0] $end
$var wire 64 * readmem [63:0] $end
$var wire 4 + readflags [3:0] $end
$var wire 5 , rd [4:0] $end
$var wire 5 - rb [4:0] $end
$var wire 5 . ra [4:0] $end
$var wire 64 / pc [63:0] $end
$var wire 11 0 opcode [10:0] $end
$var wire 1 1 nop $end
$var wire 64 2 movres [63:0] $end
$var wire 64 3 movoperand [63:0] $end
$var wire 3 4 movop [2:0] $end
$var wire 1 5 memwb_zero $end
$var wire 64 6 memwb_readmem [63:0] $end
$var wire 4 7 memwb_readflags [3:0] $end
$var wire 5 8 memwb_rd [4:0] $end
$var wire 64 9 memwb_pc [63:0] $end
$var wire 11 : memwb_opcode [10:0] $end
$var wire 64 ; memwb_movres [63:0] $end
$var wire 3 < memwb_control [2:0] $end
$var wire 64 = memwb_branchpc [63:0] $end
$var wire 64 > memwb_alures [63:0] $end
$var wire 32 ? instruction [31:0] $end
$var wire 64 @ ifid_pc [63:0] $end
$var wire 1 A ifid_nop $end
$var wire 32 B ifid_instruction [31:0] $end
$var wire 6 C idex_shamt [5:0] $end
$var wire 64 D idex_readreg2 [63:0] $end
$var wire 64 E idex_readreg1 [63:0] $end
$var wire 5 F idex_rd [4:0] $end
$var wire 5 G idex_rb [4:0] $end
$var wire 5 H idex_ra [4:0] $end
$var wire 64 I idex_pc [63:0] $end
$var wire 11 J idex_opcode [10:0] $end
$var wire 1 K idex_nop $end
$var wire 3 L idex_movop [2:0] $end
$var wire 64 M idex_extended [63:0] $end
$var wire 7 N idex_control [6:0] $end
$var wire 6 O idex_aluop [5:0] $end
$var wire 64 P forwardop [63:0] $end
$var wire 2 Q forwardb [1:0] $end
$var wire 2 R forwarda [1:0] $end
$var wire 4 S flagstoset [3:0] $end
$var wire 64 T extended [63:0] $end
$var wire 64 U exmem_readreg2 [63:0] $end
$var wire 5 V exmem_rd [4:0] $end
$var wire 64 W exmem_pc [63:0] $end
$var wire 11 X exmem_opcode [10:0] $end
$var wire 1 Y exmem_nop $end
$var wire 64 Z exmem_movres [63:0] $end
$var wire 4 [ exmem_flagstoset [3:0] $end
$var wire 6 \ exmem_control [5:0] $end
$var wire 64 ] exmem_branchpc [63:0] $end
$var wire 64 ^ exmem_alures [63:0] $end
$var wire 9 _ control [8:0] $end
$var wire 64 ` branchpc [63:0] $end
$var wire 1 a branch $end
$var wire 64 b alures [63:0] $end
$var wire 6 c aluop [5:0] $end
$var wire 64 d alub [63:0] $end
$var wire 64 e alua [63:0] $end
$var reg 3 f stage [2:0] $end
$scope module alu $end
$var wire 64 g a [63:0] $end
$var wire 64 h b [63:0] $end
$var wire 65 i usedb [64:0] $end
$var wire 65 j useda [64:0] $end
$var wire 1 k shift $end
$var wire 1 l shdir $end
$var wire 6 m shamt [5:0] $end
$var wire 64 n res [63:0] $end
$var wire 4 o flags [3:0] $end
$var wire 6 p aluop [5:0] $end
$upscope $end
$scope module branchcontrol $end
$var wire 1 a branch $end
$var wire 1 q conditional $end
$var wire 1 r flagbased $end
$var wire 1 5 zero $end
$var wire 1 s z $end
$var wire 1 t v $end
$var wire 1 u unconditional $end
$var wire 5 v rd [4:0] $end
$var wire 11 w opcode [10:0] $end
$var wire 1 x n $end
$var wire 4 y flags [3:0] $end
$var wire 1 z c $end
$upscope $end
$scope module controlunit $end
$var wire 11 { opcode [10:0] $end
$var wire 3 | movop [2:0] $end
$var wire 9 } control [8:0] $end
$var wire 6 ~ aluop [5:0] $end
$upscope $end
$scope module exmem $end
$var wire 64 !" aluresin [63:0] $end
$var wire 1 ! clk $end
$var wire 6 "" controlin [5:0] $end
$var wire 4 #" flagstosetin [3:0] $end
$var wire 1 1 nop $end
$var wire 64 $" readreg2in [63:0] $end
$var wire 5 %" rdin [4:0] $end
$var wire 64 &" pcin [63:0] $end
$var wire 11 '" opcodein [10:0] $end
$var wire 1 K nopin $end
$var wire 64 (" movresin [63:0] $end
$var wire 64 )" branchpcin [63:0] $end
$var reg 64 *" aluresout [63:0] $end
$var reg 64 +" branchpcout [63:0] $end
$var reg 6 ," controlout [5:0] $end
$var reg 4 -" flagstosetout [3:0] $end
$var reg 64 ." movresout [63:0] $end
$var reg 1 Y nopout $end
$var reg 11 /" opcodeout [10:0] $end
$var reg 64 0" pcout [63:0] $end
$var reg 5 1" rdout [4:0] $end
$var reg 64 2" readreg2out [63:0] $end
$upscope $end
$scope module flagsreg $end
$var wire 1 ! clk $end
$var wire 4 3" flagstoset [3:0] $end
$var wire 1 " reset $end
$var wire 1 4" setflags $end
$var reg 4 5" flags [3:0] $end
$upscope $end
$scope module forward $end
$var wire 11 6" exmem_opcode [10:0] $end
$var wire 5 7" exmem_rd [4:0] $end
$var wire 1 8" exmem_regwrite $end
$var wire 1 9" forwarda_exmem $end
$var wire 1 :" forwarda_memwb $end
$var wire 1 ;" forwardb_exmem $end
$var wire 1 <" forwardb_memwb $end
$var wire 11 =" memwb_opcode [10:0] $end
$var wire 1 >" memwb_regwrite $end
$var wire 5 ?" memwb_rd [4:0] $end
$var wire 1 @" memwb_branch $end
$var wire 5 A" idex_rb [4:0] $end
$var wire 5 B" idex_ra [4:0] $end
$var wire 2 C" forwardb [1:0] $end
$var wire 2 D" forwarda [1:0] $end
$var wire 1 E" exmem_branch $end
$upscope $end
$scope module hazard $end
$var wire 11 F" exmem_opcode [10:0] $end
$var wire 1 G" idex_memread $end
$var wire 11 H" opcode [10:0] $end
$var wire 5 I" rm [4:0] $end
$var wire 5 J" rn [4:0] $end
$var wire 5 K" rt [4:0] $end
$var wire 3 L" stage [2:0] $end
$var wire 1 $ stall $end
$var wire 5 M" idex_rd [4:0] $end
$var wire 11 N" idex_opcode [10:0] $end
$upscope $end
$scope module idex $end
$var wire 6 O" aluopin [5:0] $end
$var wire 1 ! clk $end
$var wire 7 P" controlin [6:0] $end
$var wire 3 Q" movopin [2:0] $end
$var wire 1 1 nop $end
$var wire 11 R" opcodein [10:0] $end
$var wire 5 S" rain [4:0] $end
$var wire 5 T" rbin [4:0] $end
$var wire 5 U" rdin [4:0] $end
$var wire 6 V" shamtin [5:0] $end
$var wire 64 W" readreg2in [63:0] $end
$var wire 64 X" readreg1in [63:0] $end
$var wire 64 Y" pcin [63:0] $end
$var wire 1 A nopin $end
$var wire 64 Z" extendedin [63:0] $end
$var reg 6 [" aluopout [5:0] $end
$var reg 7 \" controlout [6:0] $end
$var reg 64 ]" extendedout [63:0] $end
$var reg 3 ^" movopout [2:0] $end
$var reg 1 K nopout $end
$var reg 11 _" opcodeout [10:0] $end
$var reg 64 `" pcout [63:0] $end
$var reg 5 a" raout [4:0] $end
$var reg 5 b" rbout [4:0] $end
$var reg 5 c" rdout [4:0] $end
$var reg 64 d" readreg1out [63:0] $end
$var reg 64 e" readreg2out [63:0] $end
$var reg 6 f" shamtout [5:0] $end
$upscope $end
$scope module ifid $end
$var wire 1 ! clk $end
$var wire 1 1 nopin $end
$var wire 1 $ stall $end
$var wire 64 g" pcin [63:0] $end
$var wire 32 h" instin [31:0] $end
$var reg 32 i" instout [31:0] $end
$var reg 1 A nopout $end
$var reg 64 j" pcout [63:0] $end
$upscope $end
$scope module memdata $end
$var wire 64 k" addr [63:0] $end
$var wire 1 ! clk $end
$var wire 64 l" in [63:0] $end
$var wire 1 m" rden $end
$var wire 1 " reset $end
$var wire 1 n" wren $end
$var wire 64 o" out [63:0] $end
$upscope $end
$scope module memprog $end
$var wire 64 p" pc [63:0] $end
$var wire 32 q" instruction [31:0] $end
$upscope $end
$scope module memwb $end
$var wire 64 r" aluresin [63:0] $end
$var wire 64 s" branchpcin [63:0] $end
$var wire 1 ! clk $end
$var wire 3 t" controlin [2:0] $end
$var wire 64 u" movresin [63:0] $end
$var wire 1 1 nop $end
$var wire 1 Y nopin $end
$var wire 11 v" opcodein [10:0] $end
$var wire 64 w" pcin [63:0] $end
$var wire 5 x" rdin [4:0] $end
$var wire 4 y" readflagsin [3:0] $end
$var wire 64 z" readmemin [63:0] $end
$var wire 1 {" zeroin $end
$var reg 64 |" aluresout [63:0] $end
$var reg 64 }" branchpcout [63:0] $end
$var reg 3 ~" controlout [2:0] $end
$var reg 64 !# movresout [63:0] $end
$var reg 1 "# nopout $end
$var reg 11 ## opcodeout [10:0] $end
$var reg 64 $# pcout [63:0] $end
$var reg 5 %# rdout [4:0] $end
$var reg 4 &# readflagsout [3:0] $end
$var reg 64 '# readmemout [63:0] $end
$var reg 1 5 zeroout $end
$upscope $end
$scope module mov $end
$var wire 64 (# extended [63:0] $end
$var wire 3 )# movop [2:0] $end
$var wire 64 *# movres [63:0] $end
$var wire 64 +# readreg [63:0] $end
$var wire 1 ,# movkeep $end
$upscope $end
$scope module pcadder $end
$var wire 64 -# extended [63:0] $end
$var wire 64 .# pc [63:0] $end
$var wire 64 /# branchpc [63:0] $end
$upscope $end
$scope module programcounter $end
$var wire 1 0# branch $end
$var wire 64 1# branchpc [63:0] $end
$var wire 1 ! clk $end
$var wire 1 " rst $end
$var wire 1 $ stall $end
$var reg 64 2# pc [63:0] $end
$upscope $end
$scope module registerfile $end
$var wire 1 ! clk $end
$var wire 64 3# in [63:0] $end
$var wire 64 4# outm [63:0] $end
$var wire 64 5# outn [63:0] $end
$var wire 5 6# rd [4:0] $end
$var wire 1 " reset $end
$var wire 5 7# rm [4:0] $end
$var wire 5 8# rn [4:0] $end
$var wire 1 9# wren $end
$var integer 32 :# i [31:0] $end
$upscope $end
$scope module signextension $end
$var wire 32 ;# instruction [31:0] $end
$var wire 26 <# short [25:0] $end
$var wire 11 =# opcode [10:0] $end
$var wire 64 ># mov_imm [63:0] $end
$var wire 64 ?# long [63:0] $end
$var wire 64 @# dt_addr [63:0] $end
$var wire 64 A# cb_addr [63:0] $end
$var wire 64 B# b_addr [63:0] $end
$var wire 64 C# alu_imm [63:0] $end
$upscope $end
$upscope $end
$upscope $end
$enddefinitions $end
#0
$dumpvars
b0xxxxxxxxxxxx C#
bx00 B#
bx00 A#
bx @#
bx ?#
b0xxxxxxxxxxxxxxxx >#
bx =#
bx <#
bx ;#
b100000 :#
x9#
bx 8#
bx 7#
bx 6#
bx 5#
bx 4#
bx 3#
b0 2#
bx 1#
00#
bx /#
bx .#
bx -#
x,#
bx +#
bx *#
bx )#
bx (#
bx '#
bx &#
bx %#
bx $#
bx ##
x"#
bx !#
bx ~"
bx }"
bx |"
x{"
bx z"
b0 y"
bx x"
bx w"
bx v"
bx u"
bx t"
bx s"
bx r"
b11010010100000000000000000000000 q"
b0 p"
bx o"
xn"
xm"
bx l"
bx k"
bx j"
bx i"
b11010010100000000000000000000000 h"
b0 g"
bx f"
bx e"
bx d"
bx c"
bx b"
bx a"
bx `"
bx _"
bx ^"
bx ]"
bx \"
b0xxxxx ["
bx Z"
bx Y"
bx X"
bx W"
bx V"
bx U"
bx T"
bx S"
bx R"
bx Q"
bx P"
b0xxxxx O"
bx N"
bx M"
b0 L"
bx K"
bx J"
bx I"
bx H"
xG"
bx F"
xE"
bx D"
bx C"
bx B"
bx A"
x@"
bx ?"
x>"
bx ="
x<"
x;"
x:"
x9"
x8"
bx 7"
bx 6"
b0 5"
x4"
bx 3"
bx 2"
bx 1"
bx 0"
bx /"
bx ."
bx -"
bx ,"
bx +"
bx *"
bx )"
bx ("
bx '"
bx &"
bx %"
bx $"
bx #"
bx ""
bx !"
b0xxxxx ~
bx }
bx |
bx {
xz
bx y
xx
bx w
bx v
xu
xt
xs
xr
xq
b0xxxxx p
bx o
bx n
bx m
xl
xk
b0xxxxxxxxxxxxxxxxxxxxxxxxxxxxxxxxxxxxxxxxxxxxxxxxxxxxxxxxxxxxxxxx j
bx i
bx h
bx g
b0 f
bx e
bx d
b0xxxxx c
bx b
xa
bx `
bx _
bx ^
bx ]
bx \
bx [
bx Z
xY
bx X
bx W
bx V
bx U
bx T
bx S
bx R
bx Q
bx P
b0xxxxx O
bx N
bx M
bx L
xK
bx J
bx I
bx H
bx G
bx F
bx E
bx D
bx C
bx B
xA
bx @
b11010010100000000000000000000000 ?
bx >
bx =
bx <
bx ;
bx :
bx 9
bx 8
bx 7
bx 6
x5
bx 4
bx 3
bx 2
01
bx 0
b0 /
bx .
bx -
bx ,
b0 +
bx *
bx )
bx (
bx '
bx &
bx %
0$
bx #
1"
1!
$end
#1
0!
#2
b0 )
b0 X"
b0 5#
b0 .
b0 S"
b0 8#
b0 T
b0 Z"
b0 ?#
b110 P"
b0 C#
b0 >#
b1111111111111111111111111111111111111111111100000000000000000000 A#
b0 @#
b0 (
b0 W"
b0 4#
b0 -
b0 T"
b0 7#
b10000110 _
b10000110 }
b10 c
b10 ~
b10 O"
b0 4
b0 |
b0 Q"
0z
0t
0s
0x
b11010010100 =#
b1111111111111111111111111111111111111010000000000000000000000000 B#
b10100000000000000000000000 <#
b0 ,
b0 K"
b0 U"
b0 &
b0 J"
b0 %
b0 V"
b0 '
b0 I"
b11010010100 0
b11010010100 {
b11010010100 H"
b11010010100 R"
b0 7
b0 y
b0 &#
0A
b11010010100000000000000000000000 B
b11010010100000000000000000000000 i"
b11010010100000000000000000000000 ;#
b0 @
b0 Y"
b0 j"
b11110010101000000000000000000000 ?
b11110010101000000000000000000000 h"
b11110010101000000000000000000000 q"
b100 /
b100 g"
b100 p"
b100 2#
b1 f
b1 L"
1!
0"
#3
0!
#4
b0 b
b0 n
b0 !"
b100 S
b100 o
b100 #"
b0 d
b0 h
b0 j
b0 2
b0 ("
b0 *#
b100000000000 C#
b1111111111111111111111111111111111111111111101000000000000000000 A#
b101 4
b101 |
b101 Q"
b0 3
b0 +#
b0 e
b0 g
b0 i
b11110010101 =#
b1111111111111111111111111111111111111010100000000000000000000000 B#
b10101000000000000000000000 <#
b11110010101 0
b11110010101 {
b11110010101 H"
b11110010101 R"
0,#
0l
0k
0G"
b110 ""
b11110010101000000000000000000000 B
b11110010101000000000000000000000 i"
b11110010101000000000000000000000 ;#
b100 @
b100 Y"
b100 j"
b0 F
b0 %"
b0 M"
b0 c"
b0 G
b0 A"
b0 b"
b0 H
b0 B"
b0 a"
b0 C
b0 m
b0 f"
b0 `
b0 )"
b0 /#
b0 M
b0 ]"
b0 (#
b0 -#
b0 D
b0 $"
b0 e"
b0 E
b0 d"
b0 I
b0 &"
b0 `"
b0 .#
b0 L
b0 ^"
b0 )#
b10 O
b10 p
b10 ["
b11010010100 J
b11010010100 '"
b11010010100 N"
b11010010100 _"
0K
b110 N
b110 \"
b11110010110000000000000000000000 ?
b11110010110000000000000000000000 h"
b11110010110000000000000000000000 q"
b1000 /
b1000 g"
b1000 p"
b1000 2#
b110 P"
0$
b10 f
b10 L"
1!
#5
0!
#6
b11 R
b11 D"
19"
b11 Q
b11 C"
1;"
b0 2
b0 ("
b0 *#
b0 C#
b1111111111111111111111111111111111111111111110000000000000000000 A#
b110 4
b110 |
b110 Q"
1{"
b0 *
b0 o"
b0 z"
b0 P
0E"
0@"
04"
0n"
0m"
18"
b110 t"
1,#
b11110010110 =#
b1111111111111111111111111111111111111011000000000000000000000000 B#
b10110000000000000000000000 <#
b11110010110 0
b11110010110 {
b11110010110 H"
b11110010110 R"
b0 V
b0 1"
b0 7"
b0 x"
b100 [
b100 -"
b100 3"
b0 U
b0 2"
b0 l"
b0 Z
b0 ."
b0 u"
b0 ^
b0 *"
b0 k"
b0 r"
b0 ]
b0 +"
b0 s"
b0 W
b0 0"
b0 w"
b11010010100 X
b11010010100 /"
b11010010100 6"
b11010010100 ="
b11010010100 F"
b11010010100 v"
0Y
b110 \
b110 ,"
b100 `
b100 )"
b100 /#
b100 I
b100 &"
b100 `"
b100 .#
b101 L
b101 ^"
b101 )#
b11110010101 J
b11110010101 '"
b11110010101 N"
b11110010101 _"
b11110010110000000000000000000000 B
b11110010110000000000000000000000 i"
b11110010110000000000000000000000 ;#
b1000 @
b1000 Y"
b1000 j"
b11110010111000000000000000000000 ?
b11110010111000000000000000000000 h"
b11110010111000000000000000000000 q"
b1100 /
b1100 g"
b1100 p"
b1100 2#
b0 b
b0 n
b0 !"
b100 S
b100 o
b100 #"
b0 i
b0 j
b0 d
b0 h
b0 3
b0 +#
b0 e
b0 g
b11 f
b11 L"
1!
#7
0!
#8
1:"
1<"
0a
b100000000000 C#
b1111111111111111111111111111111111111111111111000000000000000000 A#
b111 4
b111 |
b111 Q"
b0 #
b0 3#
0r
0q
b11110010111 =#
b1111111111111111111111111111111111111011100000000000000000000000 B#
b10111000000000000000000000 <#
b11110010111 0
b11110010111 {
b11110010111 H"
b11110010111 R"
b0 6#
0u
19#
1>"
b11110010111000000000000000000000 B
b11110010111000000000000000000000 i"
b11110010111000000000000000000000 ;#
b1100 @
b1100 Y"
b1100 j"
b1000 `
b1000 )"
b1000 /#
b1000 I
b1000 &"
b1000 `"
b1000 .#
b110 L
b110 ^"
b110 )#
b11110010110 J
b11110010110 '"
b11110010110 N"
b11110010110 _"
b100 ]
b100 +"
b100 s"
b100 W
b100 0"
b100 w"
b11110010101 X
b11110010101 /"
b11110010101 6"
b11110010101 ="
b11110010101 F"
b11110010101 v"
b0 8
b0 v
b0 ?"
b0 %#
15
b0 ;
b0 !#
b0 >
b0 |"
b0 6
b0 '#
b0 =
b0 }"
b0 1#
b0 9
b0 $#
b11010010100 :
b11010010100 w
b11010010100 ##
b110 <
b110 ~"
b10010001000000010100001111100001 ?
b10010001000000010100001111100001 h"
b10010001000000010100001111100001 q"
b10000 /
b10000 g"
b10000 p"
b10000 2#
01
00#
b100 f
b100 L"
1!
#9
0!
#10
b1010000 T
b1010000 Z"
b1010000 ?#
b1000100 P"
b10 c
b10 ~
b10 O"
b1000100 _
b1000100 }
b1010000 C#
b101000011111 >#
b10100001111100 A#
b10100 @#
b1 -
b1 T"
b1 7#
b11111 .
b11111 S"
b11111 8#
b0 4
b0 |
b0 Q"
b10010001000 =#
b100000001010000111110000100 B#
b1000000010100001111100001 <#
b1 ,
b1 K"
b1 U"
b11111 &
b11111 J"
b10000 %
b10000 V"
b1 '
b1 I"
b10010001000 0
b10010001000 {
b10010001000 H"
b10010001000 R"
b100 =
b100 }"
b100 1#
b100 9
b100 $#
b11110010101 :
b11110010101 w
b11110010101 ##
b1000 ]
b1000 +"
b1000 s"
b1000 W
b1000 0"
b1000 w"
b11110010110 X
b11110010110 /"
b11110010110 6"
b11110010110 ="
b11110010110 F"
b11110010110 v"
b1100 `
b1100 )"
b1100 /#
b1100 I
b1100 &"
b1100 `"
b1100 .#
b111 L
b111 ^"
b111 )#
b11110010111 J
b11110010111 '"
b11110010111 N"
b11110010111 _"
b10010001000000010100001111100001 B
b10010001000000010100001111100001 i"
b10010001000000010100001111100001 ;#
b10000 @
b10000 Y"
b10000 j"
b10101010000111110000001111100011 ?
b10101010000111110000001111100011 h"
b10101010000111110000001111100011 q"
b10100 /
b10100 g"
b10100 p"
b10100 2#
b101 f
b101 L"
1!
#11
0!
#12
b1 c
b1 ~
b1 O"
b11111000000 T
b11111000000 Z"
b11111000000 ?#
b0 S
b0 o
b0 #"
b100 P"
b1010000 b
b1010000 n
b1010000 !"
b100 _
b100 }
b1010000 i
b11111000000 C#
b1111100000011111 >#
b111110000001111100 A#
b1111111111111111111111111111111111111111111111111111111111110000 @#
b11111 -
b11111 T"
b11111 7#
b1010000 d
b1010000 h
b10101010000 =#
b1111111111111111111111111111111111111000011111000000111110001100 B#
b10000111110000001111100011 <#
b11 ,
b11 K"
b11 U"
b0 %
b0 V"
b11111 '
b11111 I"
b10101010000 0
b10101010000 {
b10101010000 H"
b10101010000 R"
0<"
b0 Q
b0 C"
0;"
0:"
b0 R
b0 D"
09"
b1010000 2
b1010000 ("
b1010000 *#
0,#
b100 ""
b10101010000111110000001111100011 B
b10101010000111110000001111100011 i"
b10101010000111110000001111100011 ;#
b10100 @
b10100 Y"
b10100 j"
b1 F
b1 %"
b1 M"
b1 c"
b1 G
b1 A"
b1 b"
b11111 H
b11111 B"
b11111 a"
b10000 C
b10000 m
b10000 f"
b1010000 M
b1010000 ]"
b1010000 (#
b1010000 -#
b1100000 `
b1100000 )"
b1100000 /#
b10000 I
b10000 &"
b10000 `"
b10000 .#
b0 L
b0 ^"
b0 )#
b10010001000 J
b10010001000 '"
b10010001000 N"
b10010001000 _"
b1000100 N
b1000100 \"
b1100 ]
b1100 +"
b1100 s"
b1100 W
b1100 0"
b1100 w"
b11110010111 X
b11110010111 /"
b11110010111 6"
b11110010111 ="
b11110010111 F"
b11110010111 v"
b1000 =
b1000 }"
b1000 1#
b1000 9
b1000 $#
b11110010110 :
b11110010110 w
b11110010110 ##
b10110100000000000000000011000001 ?
b10110100000000000000000011000001 h"
b10110100000000000000000011000001 q"
b11000 /
b11000 g"
b11000 p"
b11000 2#
b110 f
b110 L"
1!
#13
0!
#14
b0 P"
b100 S
b100 o
b100 #"
b0 b
b0 n
b0 !"
b11000 T
b11000 Z"
b11000 ?#
b110000000 _
b110000000 }
b0 i
b0 C#
b110 >#
b11000 A#
b0 @#
b11111 .
b11111 S"
b11111 8#
b1 -
b1 T"
b1 7#
0{"
b1010000 P
b100 t"
b11111000000 2
b11111000000 ("
b11111000000 *#
b0 d
b0 h
b10110100000 =#
b1100000100 B#
b11000001 <#
b1 ,
b1 K"
b1 U"
b110 &
b110 J"
b0 '
b0 I"
b10110100000 0
b10110100000 {
b10110100000 H"
b10110100000 R"
b1100 =
b1100 }"
b1100 1#
b1100 9
b1100 $#
b11110010111 :
b11110010111 w
b11110010111 ##
b1 V
b1 1"
b1 7"
b1 x"
b0 [
b0 -"
b0 3"
b1010000 Z
b1010000 ."
b1010000 u"
b1010000 ^
b1010000 *"
b1010000 k"
b1010000 r"
b1100000 ]
b1100000 +"
b1100000 s"
b10000 W
b10000 0"
b10000 w"
b10010001000 X
b10010001000 /"
b10010001000 6"
b10010001000 ="
b10010001000 F"
b10010001000 v"
b100 \
b100 ,"
b11 F
b11 %"
b11 M"
b11 c"
b11111 G
b11111 A"
b11111 b"
b0 C
b0 m
b0 f"
b11111000000 M
b11111000000 ]"
b11111000000 (#
b11111000000 -#
b11111010100 `
b11111010100 )"
b11111010100 /#
b10100 I
b10100 &"
b10100 `"
b10100 .#
b1 O
b1 p
b1 ["
b10101010000 J
b10101010000 '"
b10101010000 N"
b10101010000 _"
b100 N
b100 \"
b10110100000000000000000011000001 B
b10110100000000000000000011000001 i"
b10110100000000000000000011000001 ;#
b11000 @
b11000 Y"
b11000 j"
b11111000010000000000110000000010 ?
b11111000010000000000110000000010 h"
b11111000010000000000110000000010 q"
b11100 /
b11100 g"
b11100 p"
b11100 2#
b111 f
b111 L"
1!
#15
0!
#16
b0 S
b0 o
b0 #"
b1010000 b
b1010000 n
b1010000 !"
b1010000 i
b1010000 d
b1010000 h
b0 .
b0 S"
b0 8#
b10 c
b10 ~
b10 O"
b0 T
b0 Z"
b0 ?#
b1010101 P"
b11 C#
b1100000 >#
b10000000000110000000 A#
b10 -
b10 T"
b10 7#
b11010101 _
b11010101 }
b10 4
b10 |
b10 Q"
b10 Q
b10 C"
b1010000 #
b1010000 3#
b11111000010 =#
b1000000000011000000001000 B#
b10000000000110000000010 <#
b10 ,
b10 K"
b10 U"
b0 &
b0 J"
b11 %
b11 V"
b11111000010 0
b11111000010 {
b11111000010 H"
b11111000010 R"
1<"
b11000 2
b11000 ("
b11000 *#
b0 ""
1{"
b0 P
b1 6#
b11111000010000000000110000000010 B
b11111000010000000000110000000010 i"
b11111000010000000000110000000010 ;#
b11100 @
b11100 Y"
b11100 j"
b1 F
b1 %"
b1 M"
b1 c"
b1 G
b1 A"
b1 b"
b11000 M
b11000 ]"
b11000 (#
b11000 -#
b110000 `
b110000 )"
b110000 /#
b11000 I
b11000 &"
b11000 `"
b11000 .#
b10110100000 J
b10110100000 '"
b10110100000 N"
b10110100000 _"
b0 N
b0 \"
b11 V
b11 1"
b11 7"
b11 x"
b100 [
b100 -"
b100 3"
b11111000000 Z
b11111000000 ."
b11111000000 u"
b0 ^
b0 *"
b0 k"
b0 r"
b11111010100 ]
b11111010100 +"
b11111010100 s"
b10100 W
b10100 0"
b10100 w"
b10101010000 X
b10101010000 /"
b10101010000 6"
b10101010000 ="
b10101010000 F"
b10101010000 v"
b1 8
b1 v
b1 ?"
b1 %#
05
b1010000 ;
b1010000 !#
b1010000 >
b1010000 |"
b1100000 =
b1100000 }"
b1100000 1#
b10000 9
b10000 $#
b10010001000 :
b10010001000 w
b10010001000 ##
b100 <
b100 ~"
b10001011000000100000000001100011 ?
b10001011000000100000000001100011 h"
b10001011000000100000000001100011 q"
b100000 /
b100000 g"
b100000 p"
b100000 2#
1!
#17
0!
#18
b100 S
b100 o
b100 #"
b10000000 T
b10000000 Z"
b10000000 ?#
b0 b
b0 n
b0 !"
1$
b0 P"
b10 c
b10 ~
b10 O"
b0 #
b0 3#
b0 i
b0 Q
b0 C"
b0 d
b0 h
b10000000 C#
b1000000000011 >#
b100000000001100 A#
b100000 @#
b10 -
b10 T"
b10 7#
b11 .
b11 S"
b11 8#
b100 _
b100 }
b0 4
b0 |
b0 Q"
b11 6#
0{"
b1010000 P
1E"
1@"
08"
b0 t"
0<"
b0 2
b0 ("
b0 *#
1G"
b10101 ""
b10001011000 =#
b1111111111111111111111111111111111111100000010000000000110001100 B#
b11000000100000000001100011 <#
b11 ,
b11 K"
b11 U"
b11 &
b11 J"
b0 %
b0 V"
b10 '
b10 I"
b10001011000 0
b10001011000 {
b10001011000 H"
b10001011000 R"
b11 8
b11 v
b11 ?"
b11 %#
15
b11111000000 ;
b11111000000 !#
b0 >
b0 |"
b11111010100 =
b11111010100 }"
b11111010100 1#
b10100 9
b10100 $#
b10101010000 :
b10101010000 w
b10101010000 ##
b1 V
b1 1"
b1 7"
b1 x"
b0 [
b0 -"
b0 3"
b11000 Z
b11000 ."
b11000 u"
b1010000 ^
b1010000 *"
b1010000 k"
b1010000 r"
b110000 ]
b110000 +"
b110000 s"
b11000 W
b11000 0"
b11000 w"
b10110100000 X
b10110100000 /"
b10110100000 6"
b10110100000 ="
b10110100000 F"
b10110100000 v"
b0 \
b0 ,"
b10 F
b10 %"
b10 M"
b10 c"
b10 G
b10 A"
b10 b"
b0 H
b0 B"
b0 a"
b11 C
b11 m
b11 f"
b0 M
b0 ]"
b0 (#
b0 -#
b11100 `
b11100 )"
b11100 /#
b11100 I
b11100 &"
b11100 `"
b11100 .#
b10 L
b10 ^"
b10 )#
b10 O
b10 p
b10 ["
b11111000010 J
b11111000010 '"
b11111000010 N"
b11111000010 _"
b1010101 N
b1010101 \"
b10001011000000100000000001100011 B
b10001011000000100000000001100011 i"
b10001011000000100000000001100011 ;#
b100000 @
b100000 Y"
b100000 j"
b11010001000000000010000000100001 ?
b11010001000000000010000000100001 h"
b11010001000000000010000000100001 q"
b100100 /
b100100 g"
b100100 p"
b100100 2#
1!
#19
0!
#20
01
00#
b100 P"
b11 Q
b11 C"
1;"
0a
0$
b1010000 #
b1010000 3#
b1 *
b1 o"
b1 z"
0q
b10000000 2
b10000000 ("
b10000000 *#
0G"
b0 ""
1{"
b0 P
0E"
0@"
1m"
18"
b101 t"
b1 6#
09#
0>"
b11 F
b11 %"
b11 M"
b11 c"
b11 H
b11 B"
b11 a"
b0 C
b0 m
b0 f"
b10000000 M
b10000000 ]"
b10000000 (#
b10000000 -#
b10100000 `
b10100000 )"
b10100000 /#
b100000 I
b100000 &"
b100000 `"
b100000 .#
b0 L
b0 ^"
b0 )#
b10001011000 J
b10001011000 '"
b10001011000 N"
b10001011000 _"
b0 N
b0 \"
b10 V
b10 1"
b10 7"
b10 x"
b100 [
b100 -"
b100 3"
b0 Z
b0 ."
b0 u"
b0 ^
b0 *"
b0 k"
b0 r"
b11100 ]
b11100 +"
b11100 s"
b11100 W
b11100 0"
b11100 w"
b11111000010 X
b11111000010 /"
b11111000010 6"
b11111000010 ="
b11111000010 F"
b11111000010 v"
b10101 \
b10101 ,"
b1 8
b1 v
b1 ?"
b1 %#
05
b11000 ;
b11000 !#
b1010000 >
b1010000 |"
b110000 =
b110000 }"
b110000 1#
b11000 9
b11000 $#
b10110100000 :
b10110100000 w
b10110100000 ##
b0 <
b0 ~"
1!
#21
0!
